RandomNumberGenerator/simulation/qsim/RandomNumberGenerator.msim.vcd
$comment
	File created using the following command:
		vcd file RandomNumberGenerator.msim.vcd -direction
$end
$date
	Sun Dec 01 15:19:13 2024
$end
$version
	ModelSim Version 2020.1
$end
$timescale
	1ps
$end

$scope module RandomNumberGenerator_vlg_vec_tst $end
$var reg 1 ! clk $end
$var reg 1 " gen_enable $end
$var reg 1 # rst_n $end
$var wire 1 $ rnd [15] $end
$var wire 1 % rnd [14] $end
$var wire 1 & rnd [13] $end
$var wire 1 ' rnd [12] $end
$var wire 1 ( rnd [11] $end
$var wire 1 ) rnd [10] $end
$var wire 1 * rnd [9] $end
$var wire 1 + rnd [8] $end
$var wire 1 , rnd [7] $end
$var wire 1 - rnd [6] $end
$var wire 1 . rnd [5] $end
$var wire 1 / rnd [4] $end
$var wire 1 0 rnd [3] $end
$var wire 1 1 rnd [2] $end
$var wire 1 2 rnd [1] $end
$var wire 1 3 rnd [0] $end

$scope module i1 $end
$var wire 1 4 gnd $end
$var wire 1 5 vcc $end
$var wire 1 6 unknown $end
$var tri1 1 7 devclrn $end
$var tri1 1 8 devpor $end
$var tri1 1 9 devoe $end
$var wire 1 : ~QUARTUS_CREATED_GND~I_combout $end
$var wire 1 ; clk~input_o $end
$var wire 1 < clk~inputCLKENA0_outclk $end
$var wire 1 = rnd_internal[1]~1_combout $end
$var wire 1 > rst_n~input_o $end
$var wire 1 ? rnd_internal[3]~feeder_combout $end
$var wire 1 @ rnd_internal[4]~feeder_combout $end
$var wire 1 A rnd_internal[5]~2_combout $end
$var wire 1 B rnd_internal[5]~DUPLICATE_q $end
$var wire 1 C rnd_internal[8]~3_combout $end
$var wire 1 D rnd_internal[10]~4_combout $end
$var wire 1 E rnd_internal[10]~DUPLICATE_q $end
$var wire 1 F rnd_internal[12]~5_combout $end
$var wire 1 G rnd_internal[13]~6_combout $end
$var wire 1 H rnd_internal[13]~DUPLICATE_q $end
$var wire 1 I rnd_internal[14]~7_combout $end
$var wire 1 J rnd_internal[15]~8_combout $end
$var wire 1 K rnd_internal[15]~DUPLICATE_q $end
$var wire 1 L rnd_internal~0_combout $end
$var wire 1 M Mod0|auto_generated|divider|divider|add_sub_3_result_int[0]~1_sumout $end
$var wire 1 N rnd_internal[0]~_wirecell_combout $end
$var wire 1 O rnd_internal[2]~DUPLICATE_q $end
$var wire 1 P rnd_internal[1]~DUPLICATE_q $end
$var wire 1 Q Mod0|auto_generated|divider|divider|add_sub_3_result_int[0]~2 $end
$var wire 1 R Mod0|auto_generated|divider|divider|add_sub_3_result_int[0]~3 $end
$var wire 1 S Mod0|auto_generated|divider|divider|add_sub_3_result_int[1]~10 $end
$var wire 1 T Mod0|auto_generated|divider|divider|add_sub_3_result_int[1]~11 $end
$var wire 1 U Mod0|auto_generated|divider|divider|add_sub_3_result_int[2]~14 $end
$var wire 1 V Mod0|auto_generated|divider|divider|add_sub_3_result_int[2]~15 $end
$var wire 1 W Mod0|auto_generated|divider|divider|add_sub_3_result_int[3]~18 $end
$var wire 1 X Mod0|auto_generated|divider|divider|add_sub_3_result_int[3]~19 $end
$var wire 1 Y Mod0|auto_generated|divider|divider|add_sub_3_result_int[4]~5_sumout $end
$var wire 1 Z gen_enable~input_o $end
$var wire 1 [ rnd[0]~reg0_q $end
$var wire 1 \ Mod0|auto_generated|divider|divider|add_sub_3_result_int[1]~9_sumout $end
$var wire 1 ] rnd[1]~reg0_q $end
$var wire 1 ^ Mod0|auto_generated|divider|divider|add_sub_3_result_int[2]~13_sumout $end
$var wire 1 _ rnd[2]~reg0_q $end
$var wire 1 ` Mod0|auto_generated|divider|divider|add_sub_3_result_int[3]~17_sumout $end
$var wire 1 a rnd[3]~reg0_q $end
$var wire 1 b Mod1|auto_generated|divider|divider|add_sub_3_result_int[0]~1_sumout $end
$var wire 1 c Mod1|auto_generated|divider|divider|add_sub_3_result_int[0]~2 $end
$var wire 1 d Mod1|auto_generated|divider|divider|add_sub_3_result_int[0]~3 $end
$var wire 1 e Mod1|auto_generated|divider|divider|add_sub_3_result_int[1]~10 $end
$var wire 1 f Mod1|auto_generated|divider|divider|add_sub_3_result_int[1]~11 $end
$var wire 1 g Mod1|auto_generated|divider|divider|add_sub_3_result_int[2]~14 $end
$var wire 1 h Mod1|auto_generated|divider|divider|add_sub_3_result_int[2]~15 $end
$var wire 1 i Mod1|auto_generated|divider|divider|add_sub_3_result_int[3]~18 $end
$var wire 1 j Mod1|auto_generated|divider|divider|add_sub_3_result_int[3]~19 $end
$var wire 1 k Mod1|auto_generated|divider|divider|add_sub_3_result_int[4]~5_sumout $end
$var wire 1 l rnd[4]~reg0_q $end
$var wire 1 m Mod1|auto_generated|divider|divider|add_sub_3_result_int[1]~9_sumout $end
$var wire 1 n rnd_internal[5]~_wirecell_combout $end
$var wire 1 o rnd[5]~reg0_q $end
$var wire 1 p Mod1|auto_generated|divider|divider|add_sub_3_result_int[2]~13_sumout $end
$var wire 1 q rnd_internal[6]~_wirecell_combout $end
$var wire 1 r rnd[6]~reg0_q $end
$var wire 1 s Mod1|auto_generated|divider|divider|add_sub_3_result_int[3]~17_sumout $end
$var wire 1 t rnd_internal[7]~_wirecell_combout $end
$var wire 1 u rnd[7]~reg0_q $end
$var wire 1 v Mod2|auto_generated|divider|divider|add_sub_3_result_int[0]~1_sumout $end
$var wire 1 w Mod2|auto_generated|divider|divider|add_sub_3_result_int[0]~2 $end
$var wire 1 x Mod2|auto_generated|divider|divider|add_sub_3_result_int[0]~3 $end
$var wire 1 y Mod2|auto_generated|divider|divider|add_sub_3_result_int[1]~10 $end
$var wire 1 z Mod2|auto_generated|divider|divider|add_sub_3_result_int[1]~11 $end
$var wire 1 { Mod2|auto_generated|divider|divider|add_sub_3_result_int[2]~14 $end
$var wire 1 | Mod2|auto_generated|divider|divider|add_sub_3_result_int[2]~15 $end
$var wire 1 } Mod2|auto_generated|divider|divider|add_sub_3_result_int[3]~18 $end
$var wire 1 ~ Mod2|auto_generated|divider|divider|add_sub_3_result_int[3]~19 $end
$var wire 1 !! Mod2|auto_generated|divider|divider|add_sub_3_result_int[4]~5_sumout $end
$var wire 1 "! rnd[8]~reg0_q $end
$var wire 1 #! Mod2|auto_generated|divider|divider|add_sub_3_result_int[1]~9_sumout $end
$var wire 1 $! rnd[9]~reg0_q $end
$var wire 1 %! Mod2|auto_generated|divider|divider|add_sub_3_result_int[2]~13_sumout $end
$var wire 1 &! rnd_internal[10]~_wirecell_combout $end
$var wire 1 '! rnd[10]~reg0_q $end
$var wire 1 (! Mod2|auto_generated|divider|divider|add_sub_3_result_int[3]~17_sumout $end
$var wire 1 )! rnd_internal[11]~_wirecell_combout $end
$var wire 1 *! rnd[11]~reg0_q $end
$var wire 1 +! Mod3|auto_generated|divider|divider|add_sub_3_result_int[0]~1_sumout $end
$var wire 1 ,! Mod3|auto_generated|divider|divider|add_sub_3_result_int[0]~2 $end
$var wire 1 -! Mod3|auto_generated|divider|divider|add_sub_3_result_int[0]~3 $end
$var wire 1 .! Mod3|auto_generated|divider|divider|add_sub_3_result_int[1]~10 $end
$var wire 1 /! Mod3|auto_generated|divider|divider|add_sub_3_result_int[1]~11 $end
$var wire 1 0! Mod3|auto_generated|divider|divider|add_sub_3_result_int[2]~14 $end
$var wire 1 1! Mod3|auto_generated|divider|divider|add_sub_3_result_int[2]~15 $end
$var wire 1 2! Mod3|auto_generated|divider|divider|add_sub_3_result_int[3]~18 $end
$var wire 1 3! Mod3|auto_generated|divider|divider|add_sub_3_result_int[3]~19 $end
$var wire 1 4! Mod3|auto_generated|divider|divider|add_sub_3_result_int[4]~5_sumout $end
$var wire 1 5! rnd[12]~reg0_q $end
$var wire 1 6! Mod3|auto_generated|divider|divider|add_sub_3_result_int[1]~9_sumout $end
$var wire 1 7! rnd_internal[13]~_wirecell_combout $end
$var wire 1 8! rnd[13]~reg0_q $end
$var wire 1 9! Mod3|auto_generated|divider|divider|add_sub_3_result_int[2]~13_sumout $end
$var wire 1 :! rnd[14]~reg0_q $end
$var wire 1 ;! Mod3|auto_generated|divider|divider|add_sub_3_result_int[3]~17_sumout $end
$var wire 1 <! rnd_internal[15]~_wirecell_combout $end
$var wire 1 =! rnd[15]~reg0_q $end
$var wire 1 >! digit1 [3] $end
$var wire 1 ?! digit1 [2] $end
$var wire 1 @! digit1 [1] $end
$var wire 1 A! digit1 [0] $end
$var wire 1 B! digit2 [3] $end
$var wire 1 C! digit2 [2] $end
$var wire 1 D! digit2 [1] $end
$var wire 1 E! digit2 [0] $end
$var wire 1 F! digit3 [3] $end
$var wire 1 G! digit3 [2] $end
$var wire 1 H! digit3 [1] $end
$var wire 1 I! digit3 [0] $end
$var wire 1 J! digit4 [3] $end
$var wire 1 K! digit4 [2] $end
$var wire 1 L! digit4 [1] $end
$var wire 1 M! digit4 [0] $end
$var wire 1 N! rnd_internal [15] $end
$var wire 1 O! rnd_internal [14] $end
$var wire 1 P! rnd_internal [13] $end
$var wire 1 Q! rnd_internal [12] $end
$var wire 1 R! rnd_internal [11] $end
$var wire 1 S! rnd_internal [10] $end
$var wire 1 T! rnd_internal [9] $end
$var wire 1 U! rnd_internal [8] $end
$var wire 1 V! rnd_internal [7] $end
$var wire 1 W! rnd_internal [6] $end
$var wire 1 X! rnd_internal [5] $end
$var wire 1 Y! rnd_internal [4] $end
$var wire 1 Z! rnd_internal [3] $end
$var wire 1 [! rnd_internal [2] $end
$var wire 1 \! rnd_internal [1] $end
$var wire 1 ]! rnd_internal [0] $end
$upscope $end
$upscope $end
$enddefinitions $end
#0
$dumpvars
0!
0"
1#
03
02
01
00
0/
0.
0-
0,
0+
0*
0)
0(
0'
0&
0%
0$
04
15
x6
17
18
19
0:
0;
0<
1=
1>
0?
0@
1A
0B
1C
1D
0E
1F
1G
0H
1I
1J
0K
0L
1M
1N
0O
0P
0Q
1R
0S
0T
0U
0V
0W
0X
1Y
0Z
0[
1\
0]
1^
0_
0`
0a
0b
0c
1d
1e
0f
0g
1h
1i
0j
0k
0l
0m
1n
0o
1p
1q
0r
0s
1t
0u
0v
0w
1x
0y
0z
0{
1|
1}
0~
0!!
0"!
1#!
0$!
0%!
1&!
0'!
0(!
1)!
0*!
0+!
0,!
1-!
1.!
0/!
10!
01!
12!
03!
04!
05!
06!
17!
08!
09!
0:!
0;!
1<!
0=!
0A!
0@!
0?!
0>!
0E!
0D!
0C!
0B!
0I!
0H!
0G!
0F!
0M!
0L!
0K!
0J!
0]!
0\!
0[!
0Z!
0Y!
0X!
0W!
0V!
0U!
0T!
0S!
0R!
0Q!
0P!
0O!
0N!
$end
#10000
1!
1;
1<
1P!
1N!
1S!
1X!
1P
1K
1O!
1H
1Q!
1E
1U!
1B
1\!
0n
0&!
07!
00!
11!
0<!
1S
0e
0|
02!
0.!
1v
1+!
0G
0I
19!
0J
0\
1m
1%!
1;!
16!
1U
0}
14!
0^
0p
1(!
09!
1!!
1`
#20000
0!
0;
0<
#30000
1!
1;
1<
0P!
0N!
1O
0K
0O!
0H
1R!
1T!
1W!
1[!
0q
0h
1y
0)!
17!
01!
1<!
0U
1V
12!
1.!
1?
1p
0#!
0D
0(!
0F
1I
19!
1J
1^
0;!
06!
0i
1{
02!
04!
10!
1s
0%!
1;!
09!
1k
14!
12!
1(!
0;!
04!
#40000
0!
0;
0<
#50000
1!
1;
1<
1N!
0S!
1K
1O!
0Q!
0E
1V!
1Z!
1W
0t
1&!
00!
11!
0<!
0{
1|
02!
0`
1@
0s
0C
1L
0+!
1G
19!
0J
1%!
1;!
0Y
14!
#60000
0!
0;
0<
#70000
1!
1;
1<
1P!
0N!
1]!
0K
1H
0R!
0U!
1Y!
1)!
1}
07!
1<!
0N
12!
0.!
1b
0A
0v
0(!
1F
0I
0M
0=
0;!
16!
0!!
04!
09!
#80000
0!
0;
0<
#90000
1!
1;
1<
0X!
0P
0O!
1Q!
0T!
0B
0\!
1n
0y
01!
0S
1e
1#!
1D
1+!
0L
0G
19!
1J
1\
0m
02!
1g
0%!
1;!
0^
0p
14!
1s
#100000
1"
0!
1Z
0;
0<
#110000
1!
1;
1<
1J!
1M!
0P!
1N!
1H!
1S!
1D!
1E!
1@!
0O
0]!
1K
0H
1E
0W!
0[!
1q
0g
1h
0&!
17!
0<!
1N
0V
0|
1.!
0?
1p
1L
1I
1M
1=
1^
1%!
0;!
06!
0W
0}
10!
1`
1(!
09!
1Y
1!!
1;!
#120000
0"
0!
0Z
0;
0<
#130000
1!
1;
1<
1P
1]!
1O!
1R!
0V!
0Z!
1\!
1t
1i
0)!
00!
11!
0N
1S
0`
0@
0s
1C
0(!
0F
19!
0J
0M
0=
0\
0k
1U
0^
1`
#140000
0!
0;
0<
#150000
1!
1;
1<
0N!
0P
1O
0K
0Q!
1U!
0Y!
1[!
0\!
1<!
0U
1V
0S
12!
1?
0b
1A
1v
0+!
1G
1^
1\
0;!
04!
0^
#160000
0!
0;
0<
#170000
1!
1;
1<
1P!
1X!
0O
1H
1T!
1B
1Z!
0[!
1W
0n
1y
07!
0V
0e
0.!
0?
0`
1@
0#!
0D
0L
0I
1^
1m
16!
0Y
1{
0W
0%!
1`
0p
09!
1Y
1(!
#180000
0!
0;
0<
#190000
1!
1;
1<
0S!
0]!
0O!
0E
1W!
1Y!
0Z!
0q
0h
1&!
01!
1N
0{
1|
0`
0@
1b
0A
1p
1L
19!
1J
1M
1=
1%!
0i
02!
1s
1;!
1k
14!
#200000
0!
0;
0<
#210000
1!
1;
1<
1N!
0X!
1P
1]!
1K
0R!
1V!
0B
0Y!
1\!
1n
0t
1)!
1}
0<!
0N
1S
1e
0b
1A
0s
0C
0(!
1F
0L
0M
0=
0\
0m
0;!
0!!
1U
1g
0^
0p
1`
1s
#220000
0!
0;
0<
#230000
1!
1;
1<
1X!
0P
1O
0]!
1Q!
0U!
0W!
1B
1[!
0\!
0n
1q
0g
1h
1N
0U
1V
0S
0e
1?
1p
0v
1+!
1L
0G
1M
1=
1^
1\
1m
0^
0p
#240000
0!
0;
0<
#250000
1!
1;
1<
0P!
1P
0O
1]!
0H
0T!
0V!
1W!
1Z!
0[!
1\!
1W
0q
0h
1t
1i
0y
17!
0N
0V
1S
1.!
0?
0`
1@
1p
0s
1C
1#!
1D
0L
1I
0M
0=
1^
0\
06!
0Y
0i
0k
0W
1U
10!
1s
0%!
1`
0^
09!
1k
1Y
1W
0`
1;!
0Y
#260000
0!
0;
0<
#270000
1!
1;
1<
1S!
0P
1O
0]!
1O!
1E
1U!
1V!
1Y!
0Z!
1[!
0\!
0W
0t
0&!
00!
11!
1N
0U
1V
0S
0|
1?
1`
0@
1b
0A
0s
0C
1v
1L
19!
0J
1M
1=
1^
1\
1%!
1Y
0}
0^
1(!
1!!
#280000
0!
0;
0<
#290000
1!
1;
1<
0N!
0X!
1P
0O
1]!
0K
1R!
1T!
0U!
0B
0Y!
1Z!
0[!
1\!
1W
1n
1y
0)!
1<!
0N
0V
1S
1e
12!
0?
0`
1@
0b
1A
0v
0#!
0D
0(!
0F
0L
0M
0=
1^
0\
0m
0;!
0Y
1{
0W
1U
1g
04!
0%!
1`
0^
0p
1Y
1W
1(!
0`
1s
0Y
#300000
0!
0;
0<
#310000
1!
1;
1<
0S!
1X!
0P
1O
0]!
0Q!
0E
0T!
0W!
1B
1Y!
0Z!
1[!
0\!
0W
0n
1q
0g
1h
0y
1&!
1N
0U
1V
0S
0e
0{
1|
1?
1`
0@
1b
0A
1p
1#!
1D
0+!
1G
1M
1=
1^
1\
1m
1%!
1Y
0%!
0^
0p
#320000
0!
0;
0<
#330000
1!
1;
1<
1P!
1S!
0X!
1P
0O
1H
0R!
1E
0V!
1W!
0B
0Y!
1Z!
0[!
1\!
1W
1n
0q
0h
1t
1i
0&!
1)!
1}
07!
0V
1S
1e
0|
0.!
0?
0`
1@
0b
1A
1p
0s
1C
0(!
1F
0I
1^
0\
0m
1%!
16!
0Y
0i
0k
0!!
0W
1U
1g
0}
1s
1`
0^
0p
1(!
09!
1k
1Y
1W
1i
1!!
0`
0s
0Y
0k
#340000
1"
0!
1Z
0;
0<
#350000
1!
1;
1<
0J!
1L!
0M!
1F!
0H!
0D!
0E!
1X!
0@!
1A!
1O
0O!
1Q!
1R!
1U!
1V!
0W!
1B
1Y!
0Z!
1[!
1=!
15!
1$!
1o
1l
1]
12
1/
1.
1*
1'
1$
0W
0n
1q
0g
1h
0t
0i
0)!
01!
0U
1V
0e
1?
1`
0@
1b
0A
1p
1s
0C
1v
0(!
0F
1+!
1L
0G
19!
1J
1^
1m
1Y
1k
02!
1;!
0p
14!
#360000
0"
0!
0Z
0;
0<
#370000
1!
1;
1<
0P!
1N!
0X!
1]!
1K
0H
0Q!
1T!
0U!
0V!
1W!
0B
0Y!
1Z!
1W
1n
0q
0h
1t
1i
1y
17!
0<!
0N
1e
1.!
0`
1@
0b
1A
1p
0s
1C
0v
0#!
0D
0+!
0L
1G
1I
0M
0=
0m
0;!
06!
0Y
0i
0k
1{
1g
10!
1s
0%!
0p
09!
1k
1i
1(!
0s
1;!
0k
#380000
0!
0;
0<
#390000
1!
1;
1<
1P!
0S!
1X!
0P
0]!
1O!
1H
0E
0T!
1U!
1V!
0W!
1B
1Y!
0\!
0n
1q
0g
1h
0t
0i
0y
1&!
07!
00!
11!
1N
0S
0e
0{
1|
0.!
1b
0A
1p
1s
0C
1v
1#!
1D
0I
19!
0J
1M
1=
1\
1m
1%!
16!
1k
0%!
0^
0p
09!
#400000
0!
0;
0<
#410000
1!
1;
1<
0N!
1S!
0X!
1P
0O
0K
0O!
0R!
1E
1T!
0U!
0V!
1W!
0B
0[!
1\!
1n
0q
0h
1t
1i
1y
0&!
1)!
1}
01!
1<!
0V
1S
1e
0|
12!
0?
1p
0s
1C
0v
0#!
0D
0(!
1F
19!
1J
1^
0\
0m
1%!
0;!
0i
0k
1{
0!!
02!
0W
1U
1g
0}
04!
1s
0%!
1;!
1`
0^
0p
1(!
1k
1}
14!
1Y
1W
1i
1!!
0(!
0`
0s
0!!
0Y
0k
#420000
0!
0;
0<
#430000
1!
1;
1<
1N!
0S!
1O
1K
1Q!
1R!
0E
0T!
1U!
1V!
0W!
0Z!
1[!
0W
1q
0g
1h
0t
0i
0y
1&!
0)!
0}
0<!
0U
1V
0{
1|
1?
1`
0@
1p
1s
0C
1v
1#!
1D
1L
1(!
0F
1+!
0G
1^
1%!
0;!
1Y
1k
1!!
0%!
#440000
0!
0;
0<
#450000
1!
1;
1<
0P!
1S!
1]!
0H
0Q!
0R!
1E
1T!
0U!
0V!
0Y!
1Z!
1W
1t
1i
1y
0&!
1)!
1}
17!
0N
0|
1.!
0`
1@
0b
1A
0s
1C
0v
0#!
0D
0L
0(!
1F
0+!
1G
1I
0M
0=
1%!
06!
0Y
0k
1{
0!!
0}
10!
0%!
1(!
09!
1}
1!!
0(!
1;!
0!!
#460000
0!
0;
0<
#470000
1!
1;
1<
1P!
0S!
1X!
0P
0]!
1O!
1H
1Q!
1R!
0E
0T!
1U!
1B
1Y!
0\!
0n
0y
1&!
0)!
0}
07!
00!
11!
1N
0S
0e
0{
1|
0.!
1b
0A
1v
1#!
1D
1L
1(!
0F
1+!
0G
0I
19!
0J
1M
1=
1\
1m
1%!
16!
1!!
0%!
0^
0p
09!
#480000
0!
0;
0<
#490000
1!
1;
1<
0P!
0N!
1S!
0X!
1P
0O
1]!
0K
0O!
0H
0Q!
0R!
1E
1T!
1W!
0B
0[!
1\!
1n
0q
0h
1y
0&!
1)!
1}
17!
01!
1<!
0N
0V
1S
1e
0|
12!
1.!
0?
1p
0#!
0D
0(!
1F
0+!
1G
1I
19!
1J
0M
0=
1^
0\
0m
1%!
0;!
06!
0i
1{
0!!
02!
0W
1U
1g
0}
04!
10!
1s
0%!
1;!
1`
0^
0p
1(!
09!
1k
1}
14!
1Y
1W
1i
1!!
12!
0(!
0`
0s
0;!
0!!
0Y
0k
04!
#500000
0!
0;
0<
#510000
1!
1;
1<
1P!
1N!
0S!
0P
1O
1K
1O!
1H
1Q!
1R!
0E
1V!
0W!
0Z!
1[!
0\!
0W
1q
0g
1h
0t
0i
1&!
0)!
0}
07!
00!
11!
0<!
0U
1V
0S
0{
1|
02!
0.!
1?
1`
0@
1p
1s
0C
1(!
0F
1+!
0G
0I
19!
0J
1^
1\
1%!
1;!
16!
1Y
1k
1!!
14!
0^
09!
#520000
0!
0;
0<
#530000
1!
1;
1<
0P!
0N!
0O
0K
0O!
0H
0Q!
0R!
0U!
0V!
0Y!
1Z!
0[!
1W
1t
1i
1)!
1}
17!
01!
1<!
0V
12!
1.!
0?
0`
1@
0b
1A
0s
1C
0v
0(!
1F
0+!
0L
1G
1I
19!
1J
1^
0;!
06!
0Y
0k
0!!
02!
0W
04!
10!
1;!
1`
09!
14!
1Y
12!
0;!
04!
#540000
0!
0;
0<
#550000
1!
1;
1<
1P!
1N!
1X!
0]!
1K
1O!
1H
1Q!
0T!
1U!
1B
1Y!
0Z!
0n
0y
07!
00!
11!
0<!
1N
0e
02!
0.!
0`
0@
1b
0A
1v
1#!
1D
1+!
1L
0G
0I
19!
0J
1M
1=
1m
1;!
16!
14!
0%!
0p
09!
#560000
0!
0;
0<
#570000
1!
1;
1<
0P!
0N!
1S!
0X!
1P
1]!
0K
0O!
0H
1E
1T!
1W!
0B
0Y!
1\!
1n
0q
0h
1y
0&!
17!
01!
1<!
0N
1S
1e
0|
12!
1.!
0b
1A
1p
0#!
0D
0L
1I
19!
1J
0M
0=
0\
0m
1%!
0;!
06!
0i
1{
02!
1U
1g
0}
04!
10!
1s
0%!
1;!
0^
0p
1(!
09!
1k
1}
14!
1i
1!!
12!
0(!
1`
0s
0;!
0!!
0k
04!
#580000
0!
0;
0<
#590000
1!
1;
1<
1N!
0S!
1X!
0P
1O
0]!
1K
1O!
1R!
0E
1V!
0W!
1B
1[!
0\!
0n
1q
0g
1h
0t
0i
1&!
0)!
0}
00!
11!
0<!
1N
0U
1V
0S
0e
0{
1|
02!
1?
1p
1s
0C
1(!
0F
19!
0J
1M
1=
1^
1\
1m
1%!
1;!
1k
1!!
14!
0^
0p
#600000
0!
0;
0<
#610000
1!
1;
1<
0N!
1P
0O
0K
0Q!
0R!
0U!
0V!
1W!
1Z!
0[!
1\!
1W
0q
0h
1t
1i
1)!
1}
1<!
0V
1S
12!
0?
0`
1@
1p
0s
1C
0v
0(!
1F
0+!
1G
1^
0\
0;!
0Y
0i
0k
0!!
0W
1U
04!
1s
1`
0^
1k
1Y
1W
0`
0Y
#620000
1"
0!
1Z
0;
0<
#630000
1!
1;
1<
1K!
0L!
1P!
0F!
1G!
1B!
1O
1H
1Q!
0T!
1U!
1V!
1Y!
0Z!
1[!
0=!
18!
05!
1*!
0$!
0o
0l
0]
1[
13
02
0/
0.
0*
1(
0'
1&
0$
0W
0t
0y
07!
0U
1V
0.!
1?
1`
0@
1b
0A
0s
0C
1v
1#!
1D
1+!
0G
0I
1^
16!
1Y
0%!
09!
#640000
0"
0!
0Z
0;
0<
#650000
1!
1;
1<
0P!
1S!
0X!
0O!
0H
1E
1T!
0U!
0B
0Y!
1Z!
1W
1n
1y
0&!
17!
01!
1e
0|
1.!
0`
1@
0b
1A
0v
0#!
0D
1I
19!
1J
0m
1%!
06!
0Y
1{
02!
1g
0}
10!
0%!
1;!
0p
1(!
09!
1}
14!
1!!
12!
0(!
1s
0;!
0!!
04!
#660000
0!
0;
0<
#670000
1!
1;
1<
1N!
0S!
1X!
1K
1O!
1R!
0E
0T!
0W!
1B
1Y!
0n
1q
0g
1h
0y
1&!
0)!
0}
00!
11!
0<!
0e
0{
1|
02!
1b
0A
1p
1#!
1D
1(!
0F
19!
0J
1m
1%!
1;!
1!!
14!
0%!
0p
#680000
0!
0;
0<
#690000
1!
1;
1<
0N!
1S!
0X!
0K
0Q!
0R!
1E
0V!
1W!
0B
1n
0q
0h
1t
1i
0&!
1)!
1}
1<!
1e
0|
12!
1p
0s
1C
1L
0(!
1F
0+!
1G
0m
1%!
0;!
0i
0k
0!!
1g
0}
04!
1s
0p
1(!
1k
1i
1!!
0s
0k
#700000
0!
0;
0<
#710000
1!
1;
1<
1P!
1]!
1H
1Q!
1R!
1U!
1V!
0W!
1q
0g
1h
0t
0i
0)!
07!
0N
0.!
1p
1s
0C
1v
0(!
0F
1+!
0G
0I
0M
0=
16!
1k
09!
#720000
0!
0;
0<
#730000
1!
1;
1<
0P!
0P
0O!
0H
0Q!
1T!
0U!
0V!
0\!
1t
1i
1y
17!
01!
0S
1.!
0s
1C
0v
0#!
0D
0+!
1G
1I
19!
1J
1\
06!
0k
1{
02!
10!
0%!
1;!
0^
09!
14!
12!
1(!
0;!
04!
#740000
0!
0;
0<
#750000
1!
1;
1<
1P!
1N!
0S!
0O
1K
1O!
1H
0E
0T!
1U!
0[!
0y
1&!
07!
00!
11!
0<!
0V
0{
1|
02!
0.!
0?
1v
1#!
1D
0L
0I
19!
0J
1^
1%!
1;!
16!
0W
14!
0%!
1`
09!
1Y
#760000
0!
0;
0<
#770000
1!
1;
1<
0N!
1S!
0]!
0K
0O!
0R!
1E
1T!
0Z!
1y
0&!
1)!
1}
01!
1<!
1N
0|
12!
0`
0@
0#!
0D
0(!
1F
19!
1J
1M
1=
1%!
0;!
1{
0!!
02!
0}
04!
0%!
1;!
1(!
1}
14!
1!!
0(!
0!!
#780000
0!
0;
0<
#790000
1!
1;
1<
1N!
0S!
1P
1K
1Q!
1R!
0E
0Y!
1\!
1&!
0)!
0}
0<!
1S
0{
1|
0b
1A
1L
1(!
0F
1+!
0G
0\
1%!
0;!
1!!
1U
0^
1`
#800000
0!
0;
0<
#810000
1!
1;
1<
0P!
1X!
1O
1]!
0H
0Q!
0R!
1B
1[!
0n
1)!
1}
17!
0N
0U
1V
0e
1.!
1?
0(!
1F
0+!
1G
1I
0M
0=
1^
1m
06!
0!!
10!
0p
09!
1;!
#820000
0!
0;
0<
#830000
1!
1;
1<
1P!
0P
1O!
1H
1Q!
1W!
1Z!
0\!
1W
0q
0h
07!
00!
11!
0S
0.!
0`
1@
1p
1+!
0G
0I
19!
0J
1\
16!
0Y
0i
1s
0^
09!
1k
#840000
0!
0;
0<
#850000
1!
1;
1<
0P!
0N!
0O
0K
0O!
0H
1V!
1Y!
0[!
0t
17!
01!
1<!
0V
12!
1.!
0?
1b
0A
0s
0C
1I
19!
1J
1^
0;!
06!
02!
0W
04!
10!
1;!
1`
09!
14!
1Y
12!
0;!
04!
#860000
0!
0;
0<
#870000
1!
1;
1<
1N!
0X!
1K
1O!
0U!
0B
0Z!
1n
00!
11!
0<!
1e
02!
0`
0@
0v
19!
0J
0L
0m
1;!
1g
14!
0p
1s
#880000
0!
0;
0<
#890000
1!
1;
1<
0N!
0]!
0K
0T!
0W!
0Y!
1q
0g
1h
0y
1<!
1N
12!
0b
1A
1p
1#!
1D
1L
1M
1=
0;!
04!
0%!
#900000
0!
0;
0<
#910000
1!
1;
1<
1S!
1X!
1P
1]!
1E
0V!
1B
1\!
0n
1t
1i
0&!
0N
1S
0e
0|
0s
1C
0L
0M
0=
0\
1m
1%!
0k
1U
0}
0^
0p
1(!
1!!
1`
#920000
0!
0;
0<
#930000
1!
1;
1<
0P
1O
0]!
1R!
1U!
1W!
1[!
0\!
0q
0h
0)!
1N
0U
1V
0S
1?
1p
1v
0(!
0F
1M
1=
1^
1\
0i
1s
0^
1k
#940000
0!
0;
0<
#950000
1!
1;
1<
1P
0O
0Q!
1T!
1V!
1Z!
0[!
1\!
1W
0t
1y
0V
1S
0?
0`
1@
0s
0C
0#!
0D
0+!
1L
1G
1^
0\
0Y
1{
0W
1U
0%!
1`
0^
1Y
1W
1(!
0`
0Y
#960000
0!
0;
0<
#970000
1!
1;
1<
1P!
0S!
1O
1]!
1H
0E
0U!
1Y!
0Z!
1[!
0W
1&!
07!
0N
0U
1V
0{
1|
0.!
1?
1`
0@
1b
0A
0v
0I
0M
0=
1^
1%!
16!
1Y
09!
#980000
0!
0;
0<
#990000
1!
1;
1<
0X!
0P
0O!
0R!
0T!
0B
0Y!
1Z!
0\!
1W
1n
0y
1)!
1}
01!
0S
1e
0`
1@
0b
1A
1#!
1D
0(!
1F
19!
1J
1\
0m
0Y
0!!
02!
1g
0%!
1;!
0^
0p
14!
1s
