Password/simulation/qsim/Password.msim.vcd
$comment
	File created using the following command:
		vcd file Password.msim.vcd -direction
$end
$date
	Thu Dec 05 19:18:37 2024
$end
$version
	ModelSim Version 2020.1
$end
$timescale
	1ps
$end

$scope module Password_vlg_vec_tst $end
$var reg 4 ! Reg_1 [3:0] $end
$var reg 4 " Reg_2 [3:0] $end
$var reg 4 # Reg_3 [3:0] $end
$var reg 4 $ Reg_4 [3:0] $end
$var reg 1 % clk $end
$var reg 1 & gen_enable $end
$var reg 1 ' rst_n $end
$var wire 1 ( BALL [2] $end
$var wire 1 ) BALL [1] $end
$var wire 1 * BALL [0] $end
$var wire 1 + STRIKE [2] $end
$var wire 1 , STRIKE [1] $end
$var wire 1 - STRIKE [0] $end
$var wire 1 . correct $end
$var wire 1 / pwd_key [15] $end
$var wire 1 0 pwd_key [14] $end
$var wire 1 1 pwd_key [13] $end
$var wire 1 2 pwd_key [12] $end
$var wire 1 3 pwd_key [11] $end
$var wire 1 4 pwd_key [10] $end
$var wire 1 5 pwd_key [9] $end
$var wire 1 6 pwd_key [8] $end
$var wire 1 7 pwd_key [7] $end
$var wire 1 8 pwd_key [6] $end
$var wire 1 9 pwd_key [5] $end
$var wire 1 : pwd_key [4] $end
$var wire 1 ; pwd_key [3] $end
$var wire 1 < pwd_key [2] $end
$var wire 1 = pwd_key [1] $end
$var wire 1 > pwd_key [0] $end

$scope module i1 $end
$var wire 1 ? gnd $end
$var wire 1 @ vcc $end
$var wire 1 A unknown $end
$var tri1 1 B devclrn $end
$var tri1 1 C devpor $end
$var tri1 1 D devoe $end
$var wire 1 E ~QUARTUS_CREATED_GND~I_combout $end
$var wire 1 F Reg_4[3]~input_o $end
$var wire 1 G Reg_4[1]~input_o $end
$var wire 1 H clk~input_o $end
$var wire 1 I clk~inputCLKENA0_outclk $end
$var wire 1 J rst_n~input_o $end
$var wire 1 K rng_inst|rnd_internal[5]~7_combout $end
$var wire 1 L rng_inst|rnd_internal[8]~5_combout $end
$var wire 1 M rng_inst|rnd_internal[9]~DUPLICATE_q $end
$var wire 1 N rng_inst|rnd_internal[10]~6_combout $end
$var wire 1 O rng_inst|rnd_internal[10]~DUPLICATE_q $end
$var wire 1 P rng_inst|rnd_internal[12]~2_combout $end
$var wire 1 Q rng_inst|rnd_internal[13]~3_combout $end
$var wire 1 R rng_inst|rnd_internal[14]~4_combout $end
$var wire 1 S rng_inst|rnd_internal[15]~1_combout $end
$var wire 1 T rng_inst|rnd_internal[15]~DUPLICATE_q $end
$var wire 1 U rng_inst|rnd_internal~0_combout $end
$var wire 1 V rng_inst|rnd_internal[1]~8_combout $end
$var wire 1 W rng_inst|rnd_internal[1]~DUPLICATE_q $end
$var wire 1 X rng_inst|Mod0|auto_generated|divider|divider|add_sub_3_result_int[0]~10 $end
$var wire 1 Y rng_inst|Mod0|auto_generated|divider|divider|add_sub_3_result_int[0]~11 $end
$var wire 1 Z rng_inst|Mod0|auto_generated|divider|divider|add_sub_3_result_int[1]~14 $end
$var wire 1 [ rng_inst|Mod0|auto_generated|divider|divider|add_sub_3_result_int[1]~15 $end
$var wire 1 \ rng_inst|Mod0|auto_generated|divider|divider|add_sub_3_result_int[2]~17_sumout $end
$var wire 1 ] rng_inst|Mod0|auto_generated|divider|divider|add_sub_3_result_int[2]~18 $end
$var wire 1 ^ rng_inst|Mod0|auto_generated|divider|divider|add_sub_3_result_int[2]~19 $end
$var wire 1 _ rng_inst|Mod0|auto_generated|divider|divider|add_sub_3_result_int[3]~2 $end
$var wire 1 ` rng_inst|Mod0|auto_generated|divider|divider|add_sub_3_result_int[3]~3 $end
$var wire 1 a rng_inst|Mod0|auto_generated|divider|divider|add_sub_3_result_int[4]~5_sumout $end
$var wire 1 b gen_enable~input_o $end
$var wire 1 c rng_inst|Mod0|auto_generated|divider|divider|add_sub_3_result_int[0]~9_sumout $end
$var wire 1 d rng_inst|rnd_internal[0]~_wirecell_combout $end
$var wire 1 e Reg_4[0]~input_o $end
$var wire 1 f rng_inst|Mod0|auto_generated|divider|divider|add_sub_3_result_int[1]~13_sumout $end
$var wire 1 g Reg_4[2]~input_o $end
$var wire 1 h game_inst|Equal3~0_combout $end
$var wire 1 i rng_inst|Mod0|auto_generated|divider|divider|add_sub_3_result_int[3]~1_sumout $end
$var wire 1 j game_inst|Equal3~1_combout $end
$var wire 1 k rng_inst|Mod2|auto_generated|divider|divider|add_sub_3_result_int[0]~10 $end
$var wire 1 l rng_inst|Mod2|auto_generated|divider|divider|add_sub_3_result_int[0]~11 $end
$var wire 1 m rng_inst|Mod2|auto_generated|divider|divider|add_sub_3_result_int[1]~14 $end
$var wire 1 n rng_inst|Mod2|auto_generated|divider|divider|add_sub_3_result_int[1]~15 $end
$var wire 1 o rng_inst|Mod2|auto_generated|divider|divider|add_sub_3_result_int[2]~18 $end
$var wire 1 p rng_inst|Mod2|auto_generated|divider|divider|add_sub_3_result_int[2]~19 $end
$var wire 1 q rng_inst|Mod2|auto_generated|divider|divider|add_sub_3_result_int[3]~1_sumout $end
$var wire 1 r rng_inst|rnd_internal[11]~_wirecell_combout $end
$var wire 1 s rng_inst|Mod2|auto_generated|divider|divider|add_sub_3_result_int[3]~2 $end
$var wire 1 t rng_inst|Mod2|auto_generated|divider|divider|add_sub_3_result_int[3]~3 $end
$var wire 1 u rng_inst|Mod2|auto_generated|divider|divider|add_sub_3_result_int[4]~5_sumout $end
$var wire 1 v Reg_2[3]~input_o $end
$var wire 1 w game_inst|Equal1~0_combout $end
$var wire 1 x Reg_2[1]~input_o $end
$var wire 1 y Reg_2[0]~input_o $end
$var wire 1 z rng_inst|Mod2|auto_generated|divider|divider|add_sub_3_result_int[2]~17_sumout $end
$var wire 1 { rng_inst|rnd_internal[10]~_wirecell_combout $end
$var wire 1 | Reg_2[2]~input_o $end
$var wire 1 } rng_inst|Mod2|auto_generated|divider|divider|add_sub_3_result_int[0]~9_sumout $end
$var wire 1 ~ rng_inst|Mod2|auto_generated|divider|divider|add_sub_3_result_int[1]~13_sumout $end
$var wire 1 !! game_inst|Equal1~1_combout $end
$var wire 1 "! game_inst|Equal1~2_combout $end
$var wire 1 #! Reg_3[3]~input_o $end
$var wire 1 $! rng_inst|Mod1|auto_generated|divider|divider|add_sub_3_result_int[0]~10 $end
$var wire 1 %! rng_inst|Mod1|auto_generated|divider|divider|add_sub_3_result_int[0]~11 $end
$var wire 1 &! rng_inst|Mod1|auto_generated|divider|divider|add_sub_3_result_int[1]~14 $end
$var wire 1 '! rng_inst|Mod1|auto_generated|divider|divider|add_sub_3_result_int[1]~15 $end
$var wire 1 (! rng_inst|Mod1|auto_generated|divider|divider|add_sub_3_result_int[2]~18 $end
$var wire 1 )! rng_inst|Mod1|auto_generated|divider|divider|add_sub_3_result_int[2]~19 $end
$var wire 1 *! rng_inst|Mod1|auto_generated|divider|divider|add_sub_3_result_int[3]~1_sumout $end
$var wire 1 +! rng_inst|rnd_internal[7]~_wirecell_combout $end
$var wire 1 ,! rng_inst|Mod1|auto_generated|divider|divider|add_sub_3_result_int[3]~2 $end
$var wire 1 -! rng_inst|Mod1|auto_generated|divider|divider|add_sub_3_result_int[3]~3 $end
$var wire 1 .! rng_inst|Mod1|auto_generated|divider|divider|add_sub_3_result_int[4]~5_sumout $end
$var wire 1 /! Reg_3[0]~input_o $end
$var wire 1 0! rng_inst|Mod1|auto_generated|divider|divider|add_sub_3_result_int[2]~17_sumout $end
$var wire 1 1! rng_inst|rnd_internal[6]~_wirecell_combout $end
$var wire 1 2! Reg_3[2]~input_o $end
$var wire 1 3! Reg_3[1]~input_o $end
$var wire 1 4! rng_inst|Mod1|auto_generated|divider|divider|add_sub_3_result_int[0]~9_sumout $end
$var wire 1 5! rng_inst|Mod1|auto_generated|divider|divider|add_sub_3_result_int[1]~13_sumout $end
$var wire 1 6! rng_inst|rnd_internal[5]~_wirecell_combout $end
$var wire 1 7! game_inst|Equal2~0_combout $end
$var wire 1 8! game_inst|Equal2~1_combout $end
$var wire 1 9! Reg_1[3]~input_o $end
$var wire 1 :! rng_inst|Mod3|auto_generated|divider|divider|add_sub_3_result_int[0]~10 $end
$var wire 1 ;! rng_inst|Mod3|auto_generated|divider|divider|add_sub_3_result_int[0]~11 $end
$var wire 1 <! rng_inst|Mod3|auto_generated|divider|divider|add_sub_3_result_int[1]~14 $end
$var wire 1 =! rng_inst|Mod3|auto_generated|divider|divider|add_sub_3_result_int[1]~15 $end
$var wire 1 >! rng_inst|Mod3|auto_generated|divider|divider|add_sub_3_result_int[2]~18 $end
$var wire 1 ?! rng_inst|Mod3|auto_generated|divider|divider|add_sub_3_result_int[2]~19 $end
$var wire 1 @! rng_inst|Mod3|auto_generated|divider|divider|add_sub_3_result_int[3]~1_sumout $end
$var wire 1 A! rng_inst|rnd_internal[15]~_wirecell_combout $end
$var wire 1 B! rng_inst|Mod3|auto_generated|divider|divider|add_sub_3_result_int[3]~2 $end
$var wire 1 C! rng_inst|Mod3|auto_generated|divider|divider|add_sub_3_result_int[3]~3 $end
$var wire 1 D! rng_inst|Mod3|auto_generated|divider|divider|add_sub_3_result_int[4]~5_sumout $end
$var wire 1 E! game_inst|Equal0~0_combout $end
$var wire 1 F! rng_inst|Mod3|auto_generated|divider|divider|add_sub_3_result_int[1]~13_sumout $end
$var wire 1 G! rng_inst|rnd_internal[13]~_wirecell_combout $end
$var wire 1 H! rng_inst|Mod3|auto_generated|divider|divider|add_sub_3_result_int[0]~9_sumout $end
$var wire 1 I! rng_inst|Mod3|auto_generated|divider|divider|add_sub_3_result_int[2]~17_sumout $end
$var wire 1 J! Reg_1[1]~input_o $end
$var wire 1 K! Reg_1[0]~input_o $end
$var wire 1 L! Reg_1[2]~input_o $end
$var wire 1 M! game_inst|Equal0~1_combout $end
$var wire 1 N! game_inst|Equal0~2_combout $end
$var wire 1 O! game_inst|STRIKE[2]~0_combout $end
$var wire 1 P! game_inst|STRIKE[0]~1_combout $end
$var wire 1 Q! game_inst|STRIKE[1]~2_combout $end
$var wire 1 R! game_inst|always0~31_combout $end
$var wire 1 S! game_inst|always0~32_combout $end
$var wire 1 T! game_inst|Equal4~0_combout $end
$var wire 1 U! game_inst|always0~5_combout $end
$var wire 1 V! game_inst|always0~10_combout $end
$var wire 1 W! game_inst|always0~11_combout $end
$var wire 1 X! game_inst|always0~12_combout $end
$var wire 1 Y! game_inst|always0~33_combout $end
$var wire 1 Z! game_inst|always0~0_combout $end
$var wire 1 [! game_inst|Equal7~0_combout $end
$var wire 1 \! game_inst|always0~1_combout $end
$var wire 1 ]! game_inst|always0~2_combout $end
$var wire 1 ^! game_inst|always0~3_combout $end
$var wire 1 _! game_inst|always0~7_combout $end
$var wire 1 `! game_inst|always0~8_combout $end
$var wire 1 a! game_inst|always0~6_combout $end
$var wire 1 b! game_inst|always0~9_combout $end
$var wire 1 c! game_inst|always0~27_combout $end
$var wire 1 d! game_inst|always0~28_combout $end
$var wire 1 e! game_inst|always0~29_combout $end
$var wire 1 f! game_inst|always0~24_combout $end
$var wire 1 g! game_inst|always0~25_combout $end
$var wire 1 h! game_inst|always0~30_combout $end
$var wire 1 i! game_inst|always0~13_combout $end
$var wire 1 j! game_inst|always0~14_combout $end
$var wire 1 k! game_inst|always0~15_combout $end
$var wire 1 l! game_inst|always0~34_combout $end
$var wire 1 m! game_inst|Add5~0_combout $end
$var wire 1 n! game_inst|always0~16_combout $end
$var wire 1 o! game_inst|always0~17_combout $end
$var wire 1 p! game_inst|Add4~0_combout $end
$var wire 1 q! game_inst|always0~23_combout $end
$var wire 1 r! game_inst|always0~19_combout $end
$var wire 1 s! game_inst|always0~20_combout $end
$var wire 1 t! game_inst|always0~18_combout $end
$var wire 1 u! game_inst|Add6~0_combout $end
$var wire 1 v! game_inst|always0~4_combout $end
$var wire 1 w! game_inst|always0~21_combout $end
$var wire 1 x! game_inst|always0~22_combout $end
$var wire 1 y! game_inst|Add9~0_combout $end
$var wire 1 z! game_inst|always0~26_combout $end
$var wire 1 {! game_inst|Add11~0_combout $end
$var wire 1 |! game_inst|BALL[0]~0_combout $end
$var wire 1 }! game_inst|Add6~1_combout $end
$var wire 1 ~! game_inst|BALL[1]~1_combout $end
$var wire 1 !" game_inst|always0~35_combout $end
$var wire 1 "" game_inst|Add6~2_combout $end
$var wire 1 #" game_inst|Add13~0_combout $end
$var wire 1 $" game_inst|BALL[2]~2_combout $end
$var wire 1 %" rng_inst|digit4 [3] $end
$var wire 1 &" rng_inst|digit4 [2] $end
$var wire 1 '" rng_inst|digit4 [1] $end
$var wire 1 (" rng_inst|digit4 [0] $end
$var wire 1 )" rng_inst|digit3 [3] $end
$var wire 1 *" rng_inst|digit3 [2] $end
$var wire 1 +" rng_inst|digit3 [1] $end
$var wire 1 ," rng_inst|digit3 [0] $end
$var wire 1 -" rng_inst|digit2 [3] $end
$var wire 1 ." rng_inst|digit2 [2] $end
$var wire 1 /" rng_inst|digit2 [1] $end
$var wire 1 0" rng_inst|digit2 [0] $end
$var wire 1 1" rng_inst|digit1 [3] $end
$var wire 1 2" rng_inst|digit1 [2] $end
$var wire 1 3" rng_inst|digit1 [1] $end
$var wire 1 4" rng_inst|digit1 [0] $end
$var wire 1 5" rng_inst|rnd [15] $end
$var wire 1 6" rng_inst|rnd [14] $end
$var wire 1 7" rng_inst|rnd [13] $end
$var wire 1 8" rng_inst|rnd [12] $end
$var wire 1 9" rng_inst|rnd [11] $end
$var wire 1 :" rng_inst|rnd [10] $end
$var wire 1 ;" rng_inst|rnd [9] $end
$var wire 1 <" rng_inst|rnd [8] $end
$var wire 1 =" rng_inst|rnd [7] $end
$var wire 1 >" rng_inst|rnd [6] $end
$var wire 1 ?" rng_inst|rnd [5] $end
$var wire 1 @" rng_inst|rnd [4] $end
$var wire 1 A" rng_inst|rnd [3] $end
$var wire 1 B" rng_inst|rnd [2] $end
$var wire 1 C" rng_inst|rnd [1] $end
$var wire 1 D" rng_inst|rnd [0] $end
$var wire 1 E" rng_inst|rnd_internal [15] $end
$var wire 1 F" rng_inst|rnd_internal [14] $end
$var wire 1 G" rng_inst|rnd_internal [13] $end
$var wire 1 H" rng_inst|rnd_internal [12] $end
$var wire 1 I" rng_inst|rnd_internal [11] $end
$var wire 1 J" rng_inst|rnd_internal [10] $end
$var wire 1 K" rng_inst|rnd_internal [9] $end
$var wire 1 L" rng_inst|rnd_internal [8] $end
$var wire 1 M" rng_inst|rnd_internal [7] $end
$var wire 1 N" rng_inst|rnd_internal [6] $end
$var wire 1 O" rng_inst|rnd_internal [5] $end
$var wire 1 P" rng_inst|rnd_internal [4] $end
$var wire 1 Q" rng_inst|rnd_internal [3] $end
$var wire 1 R" rng_inst|rnd_internal [2] $end
$var wire 1 S" rng_inst|rnd_internal [1] $end
$var wire 1 T" rng_inst|rnd_internal [0] $end
$upscope $end
$upscope $end
$enddefinitions $end
#0
$dumpvars
b0 !
b0 "
b0 #
b0 $
0%
0&
1'
0*
0)
0(
0-
0,
1+
1.
0>
0=
0<
0;
0:
09
08
07
06
05
04
03
02
01
00
0/
0?
1@
xA
1B
1C
1D
0E
0F
0G
0H
0I
1J
1K
1L
0M
1N
0O
1P
1Q
1R
1S
0T
0U
1V
0W
0X
1Y
0Z
0[
1\
0]
0^
0_
0`
1a
0b
1c
1d
0e
1f
0g
1h
0i
1j
0k
1l
0m
0n
0o
1p
0q
1r
1s
0t
0u
0v
0w
0x
0y
0z
1{
0|
0}
1~
1!!
1"!
0#!
0$!
1%!
1&!
0'!
0(!
1)!
0*!
1+!
1,!
0-!
0.!
0/!
10!
11!
02!
03!
04!
05!
16!
17!
18!
09!
0:!
1;!
1<!
0=!
1>!
0?!
0@!
1A!
1B!
0C!
0D!
0E!
0F!
1G!
0H!
0I!
0J!
0K!
0L!
1M!
1N!
1O!
0P!
0Q!
1R!
1S!
0T!
1U!
1V!
1W!
0X!
0Y!
1Z!
0[!
0\!
1]!
0^!
1_!
0`!
1a!
0b!
1c!
1d!
0e!
1f!
1g!
0h!
1i!
1j!
0k!
0l!
1m!
1n!
0o!
0p!
0q!
1r!
0s!
0t!
0u!
0v!
1w!
0x!
1y!
0z!
0{!
0|!
0}!
0~!
0!"
0""
0#"
0$"
0("
0'"
0&"
0%"
0,"
0+"
0*"
0)"
00"
0/"
0."
0-"
04"
03"
02"
01"
0D"
0C"
0B"
0A"
0@"
0?"
0>"
0="
0<"
0;"
0:"
09"
08"
07"
06"
05"
0T"
0S"
0R"
0Q"
0P"
0O"
0N"
0M"
0L"
0K"
0J"
0I"
0H"
0G"
0F"
0E"
$end
#10000
1%
1H
1I
1E"
1J"
1W
1S"
1T
1F"
1G"
1H"
1O
1L"
1O"
06!
0&!
0{
0G!
0<!
0>!
1?!
0A!
1Z
0p
0B!
15!
1}
1H!
0Q
1F!
0R
1I!
0S
0f
1z
1@!
1]
0s
1D!
00!
0I!
0\
1q
1u
1i
#20000
0%
0H
0I
#30000
1%
1H
1I
0E"
1K"
1R"
0T
0F"
0G"
1I"
1M
1N"
01!
0)!
0r
1G!
1<!
0?!
1A!
0]
1^
1m
1B!
10!
0N
0q
0P
0F!
1R
1I!
1S
1\
0~
0@!
0,!
1>!
0B!
1o
0D!
1*!
0I!
1@!
0z
1.!
1B!
1D!
0@!
1q
0D!
#40000
0%
0H
0I
#50000
1%
1H
1I
1E"
0J"
1T
1F"
0H"
0O
1M"
1Q"
1_
0+!
1{
1U
0>!
1?!
0A!
0o
1p
0B!
0i
0*!
0L
0H!
1Q
1I!
0S
1z
1@!
0a
1D!
#60000
0%
0H
0I
#70000
1%
1H
1I
0E"
1T"
0T
1G"
0I"
0L"
1P"
1r
1s
0G!
0<!
1A!
0d
1B!
14!
0K
0}
0q
1P
1F!
0R
0c
0V
0@!
0u
0D!
0I!
#80000
0%
0H
0I
#90000
1%
1H
1I
0K"
0W
0S"
0F"
1H"
0M
0O"
16!
1&!
0U
0?!
0Z
0m
05!
1N
1H!
0Q
1I!
1S
1f
1~
1(!
0B!
00!
1@!
0\
0z
1D!
1*!
#100000
0%
0H
0I
#110000
1%
1H
1I
1E"
1J"
0R"
0T"
1T
0G"
1O
0N"
11!
0(!
1)!
0{
1U
1G!
1<!
0A!
1d
0^
0p
10!
0F!
1R
1c
1V
1\
1z
0@!
1>!
0_
0s
0I!
1i
1q
1a
1u
1@!
#120000
0%
0H
0I
#130000
1%
1H
1I
1W
1S"
1T"
1F"
1I"
0M"
0Q"
1+!
1,!
0r
0>!
1?!
0d
1Z
0i
0*!
1L
0q
0P
1I!
0S
0c
0V
0f
0.!
1]
0\
1i
#140000
0%
0H
0I
#150000
1%
1H
1I
0E"
0W
1R"
0S"
0T
0H"
1L"
0P"
1A!
0]
1^
0Z
1B!
04!
1K
1}
0H!
1Q
1\
1f
0@!
0D!
0\
#160000
0%
0H
0I
#170000
1%
1H
1I
1K"
0R"
1G"
1M
1O"
1Q"
1_
06!
0&!
0G!
0<!
0U
0^
1m
0i
15!
0N
1F!
0R
1\
0~
0a
0_
1o
00!
0I!
1i
0z
1a
1q
#180000
0%
0H
0I
#190000
1%
1H
1I
0J"
0T"
0F"
0O
1N"
1P"
0Q"
01!
0)!
1{
1U
0?!
1d
0o
1p
0i
14!
0K
10!
1I!
1S
1c
1V
1z
0,!
0B!
1*!
1@!
1.!
1D!
#200000
0%
0H
0I
#210000
1%
1H
1I
1E"
1W
1S"
1T"
1T
0I"
1M"
0O"
0P"
16!
1&!
0+!
1r
1s
0A!
0U
0d
1Z
04!
1K
05!
0*!
0L
0q
1P
0c
0V
0f
0@!
1(!
0u
1]
00!
0\
1*!
1i
#220000
0%
0H
0I
#230000
1%
1H
1I
0W
1R"
0S"
0T"
1H"
0L"
0N"
1O"
06!
0&!
11!
0(!
1)!
1U
1d
0]
1^
0Z
15!
10!
0}
1H!
0Q
1c
1V
1\
1f
00!
0\
#240000
0%
0H
0I
#250000
1%
1H
1I
0K"
1W
0R"
1S"
1T"
0G"
0M
0M"
1N"
1Q"
1_
01!
0)!
1+!
1,!
1G!
1<!
0U
0d
0^
1Z
0m
0i
10!
0*!
1L
1N
0F!
1R
0c
0V
1\
0f
1~
0a
0,!
0.!
1>!
0_
1]
1*!
0I!
1i
0\
0z
1.!
1a
1_
1@!
0i
0a
#260000
0%
0H
0I
#270000
1%
1H
1I
1J"
0W
1R"
0S"
0T"
1F"
1O
1L"
1M"
1P"
0Q"
0_
0+!
0{
1U
0>!
1?!
1d
0]
1^
0Z
0p
1i
14!
0K
0*!
0L
1}
1I!
0S
1c
1V
1\
1f
1z
1a
0s
0\
1q
1u
#280000
0%
0H
0I
#290000
1%
1H
1I
0E"
1K"
1W
0R"
1S"
1T"
0T
1I"
1M
0L"
0O"
0P"
1Q"
1_
16!
1&!
0r
1A!
0U
0d
0^
1Z
1m
1B!
0i
04!
1K
05!
0}
0N
0q
0P
0c
0V
1\
0f
0~
0@!
0a
1(!
0_
1]
1o
0D!
00!
1i
0\
0z
1a
1_
1*!
0i
1q
0a
#300000
0%
0H
0I
#310000
1%
1H
1I
0K"
0J"
0W
1R"
0S"
0T"
0H"
0O
0M
0N"
1O"
1P"
0Q"
0_
06!
0&!
11!
0(!
1)!
1{
1d
0]
1^
0Z
0o
1p
0m
1i
14!
0K
15!
10!
1N
0H!
1Q
1c
1V
1\
1f
1z
1~
1a
00!
0\
0z
#320000
0%
0H
0I
#330000
1%
1H
1I
1J"
1W
0R"
1S"
1G"
0I"
1O
0M"
1N"
0O"
0P"
1Q"
1_
16!
1&!
01!
0)!
1+!
1,!
0{
1r
1s
0G!
0<!
0^
1Z
0p
0i
04!
1K
05!
10!
0*!
1L
0q
1P
1F!
0R
1\
0f
1z
0a
1(!
0,!
0.!
0u
0_
1]
0s
00!
1*!
0I!
1i
0\
1q
1,!
1.!
1a
1_
1u
0*!
0i
0.!
0a
#340000
0%
0H
0I
#350000
1%
1H
1I
1R"
0F"
1H"
1I"
1L"
1M"
0N"
1O"
1P"
0Q"
0_
06!
0&!
11!
0(!
1)!
0+!
0,!
0r
1U
0?!
0]
1^
1i
14!
0K
15!
10!
1*!
0L
1}
0q
0P
1H!
0Q
1I!
1S
1\
1a
1.!
0B!
00!
1@!
1D!
#360000
0%
0H
0I
#370000
1%
1H
1I
1E"
1K"
1T"
1T
0G"
0H"
1M
0L"
0M"
1N"
0O"
0P"
1Q"
1_
16!
1&!
01!
0)!
1+!
1,!
0U
1G!
1<!
0A!
0d
1m
0i
04!
1K
05!
10!
0*!
1L
0}
0N
0H!
1Q
0F!
1R
0c
0V
0~
0@!
0a
1(!
0,!
0.!
1>!
1o
00!
1*!
0I!
0z
1,!
1.!
0*!
1@!
1q
0.!
#380000
0%
0H
0I
#390000
1%
1H
1I
0K"
0J"
0W
0S"
0T"
1F"
1G"
0O
0M
1L"
1M"
0N"
1O"
1P"
06!
0&!
11!
0(!
1)!
0+!
0,!
1{
0G!
0<!
0>!
1?!
1d
0Z
0o
1p
0m
14!
0K
15!
10!
1*!
0L
1}
1N
1F!
0R
1I!
0S
1c
1V
1f
1z
1~
1.!
00!
0I!
0\
0z
#400000
0%
0H
0I
#410000
1%
1H
1I
0E"
1K"
1J"
1W
0R"
1S"
0T
0F"
0I"
1O
1M
0L"
0M"
1N"
0O"
16!
1&!
01!
0)!
1+!
1,!
0{
1r
1s
0?!
1A!
0^
1Z
0p
1m
1B!
05!
10!
0*!
1L
0}
0N
0q
1P
1I!
1S
1\
0f
1z
0~
0@!
1(!
0,!
0.!
0u
0B!
0_
1]
0s
1o
0D!
00!
1*!
1@!
1i
0\
1q
0z
1,!
1.!
1D!
1a
1_
1u
1s
0*!
0i
0q
0.!
0a
0u
#420000
0%
0H
0I
#430000
1%
1H
1I
1E"
0K"
0J"
1R"
1T
1H"
1I"
0O
0M
1L"
1M"
0N"
0Q"
0_
11!
0(!
1)!
0+!
0,!
1{
1U
0r
0s
0A!
0]
1^
0o
1p
0m
1i
10!
1*!
0L
1}
1N
1q
0P
1H!
0Q
1\
1z
1~
0@!
1a
1.!
1u
0z
#440000
0%
0H
0I
#450000
1%
1H
1I
1K"
1J"
1T"
0G"
0H"
0I"
1O
1M
0L"
0M"
0P"
1Q"
1_
1+!
1,!
0{
0U
1r
1s
1G!
1<!
0d
0p
1m
0i
04!
1K
0*!
1L
0}
0N
0q
1P
0H!
1Q
0F!
1R
0c
0V
1z
0~
0a
0.!
0u
1>!
0s
1o
0I!
1q
0z
1u
1s
1@!
0q
0u
#460000
0%
0H
0I
#470000
1%
1H
1I
0K"
0J"
0W
0S"
0T"
1F"
1G"
1H"
1I"
0O
0M
1L"
1O"
1P"
06!
0&!
1{
1U
0r
0s
0G!
0<!
0>!
1?!
1d
0Z
0o
1p
0m
14!
0K
15!
1}
1N
1q
0P
1H!
0Q
1F!
0R
1I!
0S
1c
1V
1f
1z
1~
1u
00!
0I!
0\
0z
#480000
0%
0H
0I
#490000
1%
1H
1I
0E"
1K"
1J"
1W
0R"
1S"
1T"
0T
0F"
0G"
0H"
0I"
1O
1M
1N"
0O"
16!
1&!
01!
0)!
0{
1r
1s
1G!
1<!
0?!
1A!
0d
0^
1Z
0p
1m
1B!
05!
10!
0N
0q
1P
0H!
1Q
0F!
1R
1I!
1S
0c
0V
1\
0f
1z
0~
0@!
1(!
0,!
0u
1>!
0B!
0_
1]
0s
1o
0D!
00!
1*!
0I!
1@!
1i
0\
1q
0z
1,!
1.!
1B!
1D!
1a
1_
1u
1s
0*!
0@!
0i
0q
0.!
0D!
0a
0u
#500000
0%
0H
0I
#510000
1%
1H
1I
1E"
0J"
0W
1R"
0S"
1T
1F"
1G"
1H"
1I"
0O
1M"
0N"
0Q"
0_
11!
0(!
1)!
0+!
0,!
1{
0r
0s
0G!
0<!
0>!
1?!
0A!
0]
1^
0Z
0o
1p
0B!
1i
10!
1*!
0L
1q
0P
1H!
0Q
1F!
0R
1I!
0S
1\
1f
1z
1@!
1a
1.!
1u
1D!
0I!
0\
#520000
0%
0H
0I
#530000
1%
1H
1I
0E"
0R"
0T
0F"
0G"
0H"
0I"
0L"
0M"
0P"
1Q"
1_
1+!
1,!
1r
1s
0U
1G!
1<!
0?!
1A!
0^
1B!
0i
04!
1K
0*!
1L
0}
0q
1P
0H!
1Q
0F!
1R
1I!
1S
1\
0@!
0a
0.!
0u
1>!
0B!
0_
0D!
0I!
1@!
1i
1B!
1D!
1a
0@!
0D!
#540000
0%
0H
0I
#550000
1%
1H
1I
1E"
0K"
0T"
1T
1F"
1G"
1H"
0M
1L"
1O"
1P"
0Q"
06!
0&!
1U
0G!
0<!
0>!
1?!
0A!
1d
0m
0B!
0i
14!
0K
15!
1}
1N
1H!
0Q
1F!
0R
1I!
0S
1c
1V
1~
1@!
1D!
00!
0I!
0z
#560000
0%
0H
0I
#570000
1&
b100 !
b101 !
1%
1b
1K!
1L!
1H
1I
0g!
0]!
0Z!
0M!
0f!
0V!
0N!
1Q!
1P!
0O!
0.
0+
1-
1,
1&"
1("
0E"
1/"
10"
1+"
1,"
1K"
1J"
14"
1W
1S"
1T"
0T
0F"
0G"
1O
1M
1N"
0O"
0P"
16!
1&!
01!
0)!
0{
0U
1G!
1<!
0?!
1A!
0d
1Z
0p
1m
1B!
04!
1K
05!
10!
0N
0F!
1R
1I!
1S
0c
0V
0f
1z
0~
0@!
1(!
0,!
1>!
0B!
1]
0s
1o
0D!
00!
1*!
0I!
1@!
0\
1q
0z
1,!
1.!
1B!
1D!
1u
1s
0*!
0@!
1i
0q
0.!
0D!
0u
#580000
0%
0H
0I
#590000
1%
1H
1I
0&"
1E"
0/"
00"
0+"
0J"
13"
04"
0W
1R"
0S"
0T"
1T
1F"
1I"
0O
1M"
0N"
1O"
16"
18"
1?"
1@"
1;"
1<"
1D"
1>
16
15
1:
19
12
10
06!
0&!
11!
0(!
1)!
0+!
0,!
1{
0r
0s
0>!
1?!
0A!
1d
0]
1^
0Z
0o
1p
0B!
1f!
0c!
0R!
0h
0r!
0i!
0!!
0w!
0_!
07!
0n!
0W!
0U!
1M!
15!
10!
1*!
0L
1q
0P
1I!
0S
1c
1V
1\
1f
1z
1@!
1.!
1u
1D!
1V!
1N!
0a!
08!
0"!
0j!
0j
0S!
0d!
00!
0\
1v!
1h!
0Q!
0,
#600000
0&
0%
0b
0H
0I
#610000
1%
1H
1I
0E"
1W
0R"
1S"
0T
0H"
0I"
0L"
0M"
1N"
1Q"
1_
01!
0)!
1+!
1,!
1r
1s
1A!
0^
1Z
1B!
0i
10!
0*!
1L
0}
0q
1P
0H!
1Q
1\
0f
0@!
0a
0,!
0.!
0u
0_
1]
0D!
1*!
1i
0\
1.!
1a
1_
0i
0a
#620000
0%
0H
0I
#630000
b100 "
b101 "
1%
1y
1|
1H
1I
1U!
1c!
1a!
0K"
1R"
1G"
1H"
0M
1L"
1M"
1P"
0Q"
0_
0+!
0G!
0<!
0]
1^
0m
1i
14!
0K
0*!
0L
1}
1N
1H!
0Q
1F!
0R
1\
1~
1a
0I!
0z
#640000
0%
0H
0I
#650000
1%
1H
1I
1K"
1J"
0F"
0G"
1O
1M
0L"
0O"
0P"
1Q"
1_
16!
1&!
0{
1G!
1<!
0?!
0p
1m
0i
04!
1K
05!
0}
0N
0F!
1R
1I!
1S
1z
0~
0a
1(!
1>!
0B!
0s
1o
00!
0I!
1@!
1q
0z
1B!
1D!
1u
1s
1*!
0@!
0q
0D!
0u
#660000
0%
0H
0I
#670000
1%
1H
1I
1E"
0K"
0J"
1T
1F"
1I"
0O
0M
0N"
1O"
1P"
06!
0&!
11!
0(!
1)!
1{
0r
0s
0>!
1?!
0A!
0o
1p
0m
0B!
14!
0K
15!
10!
1N
1q
0P
1I!
0S
1z
1~
1@!
1u
1D!
00!
0z
#680000
0%
0H
0I
